SnakeGame/Binaries/Win64/SnakeGame.exe	2022-10-16T10:38:02.544Z
SnakeGame/Binaries/Win64/OpenImageDenoise.dll	2022-03-17T04:30:44.781Z
SnakeGame/Binaries/Win64/tbb12.dll	2022-03-17T04:30:44.783Z
Engine/Extras/Redist/en-us/UE4PrereqSetup_x64.exe	2022-03-17T04:26:37.337Z
Engine/Binaries/ThirdParty/Oculus/OVRPlugin/OVRPlugin/Win64/OVRPlugin.dll	2022-03-17T04:23:10.406Z
Engine/Binaries/ThirdParty/DbgHelp/dbghelp.dll	2022-03-17T04:23:03.906Z
Engine/Binaries/ThirdParty/PhysX3/Win64/VS2015/PxFoundationPROFILE_x64.dll	2022-03-17T04:23:17.078Z
Engine/Binaries/ThirdParty/PhysX3/Win64/VS2015/PxPvdSDKPROFILE_x64.dll	2022-03-17T04:23:17.094Z
Engine/Binaries/ThirdParty/PhysX3/Win64/VS2015/PhysX3PROFILE_x64.dll	2022-03-17T04:23:16.989Z
Engine/Binaries/ThirdParty/PhysX3/Win64/VS2015/PhysX3CookingPROFILE_x64.dll	2022-03-17T04:23:16.969Z
Engine/Binaries/ThirdParty/PhysX3/Win64/VS2015/PhysX3CommonPROFILE_x64.dll	2022-03-17T04:23:16.879Z
Engine/Binaries/ThirdParty/PhysX3/Win64/VS2015/APEX_ClothingPROFILE_x64.dll	2022-03-17T04:23:14.011Z
Engine/Binaries/ThirdParty/PhysX3/Win64/VS2015/APEX_LegacyPROFILE_x64.dll	2022-03-17T04:23:15.146Z
Engine/Binaries/ThirdParty/PhysX3/Win64/VS2015/ApexFrameworkPROFILE_x64.dll	2022-03-17T04:23:15.448Z
Engine/Binaries/ThirdParty/PhysX3/Win64/VS2015/NvClothPROFILE_x64.dll	2022-03-17T04:23:15.586Z
Engine/Binaries/ThirdParty/Ogg/Win64/VS2015/libogg_64.dll	2022-03-17T04:23:10.410Z
Engine/Binaries/ThirdParty/Vorbis/Win64/VS2015/libvorbis_64.dll	2022-03-17T04:23:24.113Z
Engine/Binaries/ThirdParty/Vorbis/Win64/VS2015/libvorbisfile_64.dll	2022-03-17T04:23:24.113Z
Engine/Binaries/ThirdParty/NVIDIA/NVaftermath/Win64/GFSDK_Aftermath_Lib.x64.dll	2022-03-17T04:23:08.410Z
Engine/Binaries/ThirdParty/OpenXR/win64/openxr_loader.dll	2022-03-17T04:23:10.446Z
Engine/Binaries/ThirdParty/OpenVR/OpenVRv1_5_17/Win64/openvr_api.dll	2022-03-17T04:23:10.437Z
Engine/Binaries/ThirdParty/NVIDIA/GeForceNOW/Win64/GfnRuntimeSdk.dll	2022-03-17T04:23:08.405Z
Engine/Binaries/ThirdParty/Windows/WinPixEventRuntime/x64/WinPixEventRuntime.dll	2022-03-17T04:23:24.163Z
Engine/Binaries/ThirdParty/Windows/XAudio2_9/x64/xaudio2_9redist.dll	2022-03-17T04:23:25.195Z
SnakeGame.exe	2022-10-16T10:38:33.449Z
